%YAML 1.1
%TAG !u! tag:unity3d.com,2011:
--- !u!687078895 &4343727234628468602
SpriteAtlas:
  m_ObjectHideFlags: 0
  m_PrefabParentObject: {fileID: 0}
  m_PrefabInternal: {fileID: 0}
  m_Name: HUD Sprite Atlas
  m_EditorData:
    textureSettings:
      serializedVersion: 2
      anisoLevel: 1
      compressionQuality: 50
      maxTextureSize: 2048
      textureCompression: 2
      filterMode: 1
      generateMipMaps: 0
      readable: 0
      crunchedCompression: 0
      sRGB: 1
    platformSettings: []
    packingParameters:
      serializedVersion: 2
      padding: 4
      blockOffset: 1
      allowAlphaSplitting: 0
      enableRotation: 1
      enableTightPacking: 1
    variantMultiplier: 1
    packables:
    - {fileID: 2800000, guid: 4ece31e1582c84b61b1350ba185e71dd, type: 3}
    - {fileID: 2800000, guid: e81d7a0414f5e4bdda45e05deca86548, type: 3}
    - {fileID: 2800000, guid: 55700f2f8ea8f40c79221a24caa98d88, type: 3}
    - {fileID: 2800000, guid: 6a84f1e04c8074eb49bd880a81954284, type: 3}
    - {fileID: 2800000, guid: 29e4506724191476893521d476e67c07, type: 3}
    - {fileID: 2800000, guid: 593e91a0f3be84de5a41e43c3f0c5770, type: 3}
    - {fileID: 2800000, guid: 7d1bafb96aca54c429809c0443aba764, type: 3}
    - {fileID: 2800000, guid: 649cc2440d45947f6b187ac45306d5aa, type: 3}
    - {fileID: 2800000, guid: e69ffa23e50554b409bd48a82f7a84ca, type: 3}
    - {fileID: 2800000, guid: 38206778ddd9b49d882aff2c2ae69fe6, type: 3}
    - {fileID: 2800000, guid: ecc4c6386eab7491b9618f6c123ab220, type: 3}
    - {fileID: 2800000, guid: 6b01192bb3edd4561b5ddb698811c575, type: 3}
    - {fileID: 2800000, guid: a0b0cda5fc7de482e95ef09f3f2c9196, type: 3}
    - {fileID: 2800000, guid: c882244a641bd40cf80052c74be95421, type: 3}
    - {fileID: 2800000, guid: 1ed1cd14f65f34947b8c869dfc25c158, type: 3}
    - {fileID: 2800000, guid: c8aec1de242824f2eba5fe8542c53da5, type: 3}
    - {fileID: 2800000, guid: ebb25f8ad9bc04ae198fe021babc58b3, type: 3}
    - {fileID: 2800000, guid: 9957a8b7de18e4378a7b070f50de22e1, type: 3}
    - {fileID: 2800000, guid: 0a99cd88f19314de0b45ba093bf588d7, type: 3}
    bindAsDefault: 1
  m_MasterAtlas: {fileID: 0}
  m_PackedSprites:
  - {fileID: 21300000, guid: 4ece31e1582c84b61b1350ba185e71dd, type: 3}
  - {fileID: 21300000, guid: 0a99cd88f19314de0b45ba093bf588d7, type: 3}
  - {fileID: 21300000, guid: ecc4c6386eab7491b9618f6c123ab220, type: 3}
  - {fileID: 21300000, guid: 6b01192bb3edd4561b5ddb698811c575, type: 3}
  - {fileID: 21300000, guid: 55700f2f8ea8f40c79221a24caa98d88, type: 3}
  - {fileID: 21300000, guid: 593e91a0f3be84de5a41e43c3f0c5770, type: 3}
  - {fileID: 21300000, guid: 29e4506724191476893521d476e67c07, type: 3}
  - {fileID: 21300000, guid: 6a84f1e04c8074eb49bd880a81954284, type: 3}
  - {fileID: 21300000, guid: 649cc2440d45947f6b187ac45306d5aa, type: 3}
  - {fileID: 21300000, guid: 7d1bafb96aca54c429809c0443aba764, type: 3}
  - {fileID: 21300000, guid: 38206778ddd9b49d882aff2c2ae69fe6, type: 3}
  - {fileID: 21300000, guid: c882244a641bd40cf80052c74be95421, type: 3}
  - {fileID: 21300000, guid: 1ed1cd14f65f34947b8c869dfc25c158, type: 3}
  - {fileID: 21300000, guid: c8aec1de242824f2eba5fe8542c53da5, type: 3}
  - {fileID: 21300000, guid: 9957a8b7de18e4378a7b070f50de22e1, type: 3}
  - {fileID: 21300000, guid: e81d7a0414f5e4bdda45e05deca86548, type: 3}
  - {fileID: 21300000, guid: a0b0cda5fc7de482e95ef09f3f2c9196, type: 3}
  - {fileID: 21300000, guid: e69ffa23e50554b409bd48a82f7a84ca, type: 3}
  - {fileID: 21300000, guid: ebb25f8ad9bc04ae198fe021babc58b3, type: 3}
  m_PackedSpriteNamesToIndex:
  - ball
  - waves
  - generic_background
  - generic_background_mask
  - button
  - character_avatar_03
  - character_avatar_02
  - character_avatar_01
  - character_avatar_05
  - character_avatar_04
  - enemy_avatar
  - make_turn_button
  - pause_button
  - selection_frame
  - top_line
  - bottom_line
  - hp_dmg_bg
  - character_name_bg
  - tile@32
  m_Tag: HUD Sprite Atlas
  m_IsVariant: 0
